[
    {
        "codec": [
            {
                "paths": [
                    "/mjpeg?res=full&x0=0&y0=0&x1=100%&y1=100%&quality=12&doublescan=0"
                ],
                "type": "MJPEG"
            },
            {
                "paths": [
                    "/cgi-bin/snapshot.cgi?loginuse=[USERNAME]&loginpas=[PASSWORD]",
                    "/cgi-bin/snapshot.cgi?chn=[CHANNEL]&u=[USERNAME]&p=[PASSWORD]",
                    "/snapshot.jpg?user=[USERNAME]&pwd=[PASSWORD]"
                ],
                "type": "JPEG"
            }
        ],
        "models": [
            "JA7208"
        ],
        "protocol": "http://"
    },
    {
        "codec": [
            {
                "paths": [],
                "type": "H.264"
            }
        ],
        "models": [
            "WT4020"
        ],
        "protocol": "rtsp://"
    }
]